"metric",".y.","group1","group2","n1","n2","statistic","df","p","analysis","stat_test","model","p_adjusted"
"mean_FA","value","0","1",47,60,-1.43374040278055,"102.767630044709",0.155,"breastmilk_75","t-test","basic",0.155
"mean_RD","value","0","1",47,60,1.62914126410459,"100.685390104521",0.106,"breastmilk_75","t-test","basic",0.141333333333333
"BM_quantiles","value","0","1",47,60,-16.6269177115805,"104.682919300132",3.84e-31,"breastmilk_75","t-test","basic",1.536e-30
"thickness","value","0","1",47,60,1765,"NA",0.0261,"breastmilk_75","nonparametric_Wilcox","basic",0.0522
